<?xml version="1.0" encoding="UTF-8"?>
<ui version="4.0">
 <class>BehaviorTreeControl</class>
 <widget class="QWidget" name="BehaviorTreeControl">
  <property name="geometry">
   <rect>
    <x>0</x>
    <y>0</y>
    <width>530</width>
    <height>528</height>
   </rect>
  </property>
  <property name="windowTitle">
   <string>Form</string>
  </property>
  <layout class="QGridLayout" name="gridLayout_2">
   <item row="0" column="0">
    <layout class="QGridLayout" name="gridLayout">
     <property name="bottomMargin">
      <number>10</number>
     </property>
     <item row="3" column="0">
      <layout class="QGridLayout" name="gridLayout_7">
       <property name="topMargin">
        <number>9</number>
       </property>
       <item row="1" column="0">
        <widget class="QGroupBox" name="groupBox_2">
         <property name="sizePolicy">
          <sizepolicy hsizetype="MinimumExpanding" vsizetype="Maximum">
           <horstretch>0</horstretch>
           <verstretch>0</verstretch>
          </sizepolicy>
         </property>
         <property name="font">
          <font>
           <weight>50</weight>
           <bold>false</bold>
           <kerning>true</kerning>
          </font>
         </property>
         <property name="title">
          <string notr="true"/>
         </property>
         <property name="flat">
          <bool>false</bool>
         </property>
         <property name="checkable">
          <bool>false</bool>
         </property>
         <layout class="QGridLayout" name="gridLayout_5">
          <property name="leftMargin">
           <number>0</number>
          </property>
          <property name="topMargin">
           <number>0</number>
          </property>
          <property name="bottomMargin">
           <number>0</number>
          </property>
          <item row="1" column="1">
           <widget class="QGroupBox" name="groupBox_4">
            <property name="sizePolicy">
             <sizepolicy hsizetype="Maximum" vsizetype="Preferred">
              <horstretch>0</horstretch>
              <verstretch>0</verstretch>
             </sizepolicy>
            </property>
            <property name="maximumSize">
             <size>
              <width>16777215</width>
              <height>100</height>
             </size>
            </property>
            <property name="title">
             <string/>
            </property>
            <property name="alignment">
             <set>Qt::AlignLeading|Qt::AlignLeft|Qt::AlignTop</set>
            </property>
            <layout class="QFormLayout" name="formLayout">
             <property name="fieldGrowthPolicy">
              <enum>QFormLayout::AllNonFixedFieldsGrow</enum>
             </property>
             <property name="topMargin">
              <number>0</number>
             </property>
             <property name="bottomMargin">
              <number>0</number>
             </property>
             <item row="0" column="0">
              <widget class="QLabel" name="label_5">
               <property name="text">
                <string>↑</string>
               </property>
              </widget>
             </item>
             <item row="0" column="1">
              <widget class="QLabel" name="label_9">
               <property name="font">
                <font>
                 <pointsize>9</pointsize>
                </font>
               </property>
               <property name="text">
                <string>MOVE FORWARD</string>
               </property>
              </widget>
             </item>
             <item row="1" column="0">
              <widget class="QLabel" name="label_6">
               <property name="text">
                <string>↓</string>
               </property>
              </widget>
             </item>
             <item row="1" column="1">
              <widget class="QLabel" name="label_10">
               <property name="font">
                <font>
                 <pointsize>9</pointsize>
                </font>
               </property>
               <property name="text">
                <string>MOVE BACK</string>
               </property>
              </widget>
             </item>
             <item row="2" column="0">
              <widget class="QLabel" name="label_7">
               <property name="text">
                <string>→ </string>
               </property>
              </widget>
             </item>
             <item row="2" column="1">
              <widget class="QLabel" name="label_11">
               <property name="font">
                <font>
                 <pointsize>9</pointsize>
                </font>
               </property>
               <property name="text">
                <string>MOVE RIGHT</string>
               </property>
              </widget>
             </item>
             <item row="3" column="0">
              <widget class="QLabel" name="label_8">
               <property name="text">
                <string>←</string>
               </property>
              </widget>
             </item>
             <item row="3" column="1">
              <widget class="QLabel" name="label_12">
               <property name="font">
                <font>
                 <pointsize>9</pointsize>
                </font>
               </property>
               <property name="text">
                <string>MOVE LEFT</string>
               </property>
              </widget>
             </item>
             <item row="4" column="1">
              <widget class="QLabel" name="label_22">
               <property name="font">
                <font>
                 <pointsize>9</pointsize>
                </font>
               </property>
               <property name="text">
                <string>KEEP HOVERING</string>
               </property>
              </widget>
             </item>
             <item row="4" column="0">
              <widget class="QLabel" name="label_23">
               <property name="text">
                <string>h</string>
               </property>
              </widget>
             </item>
            </layout>
           </widget>
          </item>
          <item row="1" column="2">
           <widget class="QGroupBox" name="groupBox_5">
            <property name="sizePolicy">
             <sizepolicy hsizetype="Maximum" vsizetype="Maximum">
              <horstretch>0</horstretch>
              <verstretch>0</verstretch>
             </sizepolicy>
            </property>
            <property name="minimumSize">
             <size>
              <width>0</width>
              <height>0</height>
             </size>
            </property>
            <property name="maximumSize">
             <size>
              <width>16777215</width>
              <height>100</height>
             </size>
            </property>
            <property name="font">
             <font>
              <weight>50</weight>
              <italic>false</italic>
              <bold>false</bold>
              <underline>false</underline>
              <strikeout>false</strikeout>
              <kerning>true</kerning>
             </font>
            </property>
            <property name="contextMenuPolicy">
             <enum>Qt::DefaultContextMenu</enum>
            </property>
            <property name="whatsThis">
             <string/>
            </property>
            <property name="accessibleDescription">
             <string/>
            </property>
            <property name="title">
             <string notr="true"/>
            </property>
            <property name="alignment">
             <set>Qt::AlignLeading|Qt::AlignLeft|Qt::AlignTop</set>
            </property>
            <layout class="QFormLayout" name="formLayout_2">
             <property name="sizeConstraint">
              <enum>QLayout::SetDefaultConstraint</enum>
             </property>
             <property name="fieldGrowthPolicy">
              <enum>QFormLayout::AllNonFixedFieldsGrow</enum>
             </property>
             <property name="labelAlignment">
              <set>Qt::AlignLeading|Qt::AlignLeft|Qt::AlignTop</set>
             </property>
             <property name="formAlignment">
              <set>Qt::AlignLeading|Qt::AlignLeft|Qt::AlignTop</set>
             </property>
             <property name="topMargin">
              <number>0</number>
             </property>
             <property name="bottomMargin">
              <number>0</number>
             </property>
             <item row="0" column="0">
              <widget class="QLabel" name="label_13">
               <property name="text">
                <string>x</string>
               </property>
               <property name="alignment">
                <set>Qt::AlignLeading|Qt::AlignLeft|Qt::AlignTop</set>
               </property>
              </widget>
             </item>
             <item row="0" column="1">
              <widget class="QLabel" name="label_14">
               <property name="font">
                <font>
                 <pointsize>9</pointsize>
                 <weight>50</weight>
                 <bold>false</bold>
                 <kerning>true</kerning>
                </font>
               </property>
               <property name="text">
                <string>ROTATE RIGHT</string>
               </property>
               <property name="alignment">
                <set>Qt::AlignLeading|Qt::AlignLeft|Qt::AlignTop</set>
               </property>
              </widget>
             </item>
             <item row="1" column="0">
              <widget class="QLabel" name="label_15">
               <property name="text">
                <string>z</string>
               </property>
               <property name="alignment">
                <set>Qt::AlignLeading|Qt::AlignLeft|Qt::AlignTop</set>
               </property>
              </widget>
             </item>
             <item row="1" column="1">
              <widget class="QLabel" name="label_16">
               <property name="font">
                <font>
                 <pointsize>9</pointsize>
                </font>
               </property>
               <property name="text">
                <string>ROTATE LEFT</string>
               </property>
               <property name="alignment">
                <set>Qt::AlignLeading|Qt::AlignLeft|Qt::AlignTop</set>
               </property>
              </widget>
             </item>
             <item row="2" column="0">
              <widget class="QLabel" name="label_21">
               <property name="text">
                <string>r</string>
               </property>
              </widget>
             </item>
             <item row="2" column="1">
              <widget class="QLabel" name="label_20">
               <property name="font">
                <font>
                 <pointsize>9</pointsize>
                </font>
               </property>
               <property name="text">
                <string>RESET</string>
               </property>
              </widget>
             </item>
            </layout>
           </widget>
          </item>
          <item row="1" column="0">
           <widget class="QGroupBox" name="groupBox_3">
            <property name="sizePolicy">
             <sizepolicy hsizetype="Maximum" vsizetype="Maximum">
              <horstretch>0</horstretch>
              <verstretch>0</verstretch>
             </sizepolicy>
            </property>
            <property name="maximumSize">
             <size>
              <width>16777215</width>
              <height>100</height>
             </size>
            </property>
            <property name="font">
             <font>
              <family>Ubuntu</family>
              <kerning>true</kerning>
             </font>
            </property>
            <property name="mouseTracking">
             <bool>false</bool>
            </property>
            <property name="acceptDrops">
             <bool>false</bool>
            </property>
            <property name="layoutDirection">
             <enum>Qt::LeftToRight</enum>
            </property>
            <property name="title">
             <string notr="true"/>
            </property>
            <property name="alignment">
             <set>Qt::AlignLeading|Qt::AlignLeft|Qt::AlignTop</set>
            </property>
            <property name="flat">
             <bool>false</bool>
            </property>
            <property name="checkable">
             <bool>false</bool>
            </property>
            <layout class="QFormLayout" name="formLayout_3">
             <property name="fieldGrowthPolicy">
              <enum>QFormLayout::AllNonFixedFieldsGrow</enum>
             </property>
             <property name="topMargin">
              <number>0</number>
             </property>
             <property name="bottomMargin">
              <number>0</number>
             </property>
             <item row="0" column="0">
              <widget class="QLabel" name="label">
               <property name="text">
                <string>t</string>
               </property>
               <property name="alignment">
                <set>Qt::AlignLeading|Qt::AlignLeft|Qt::AlignTop</set>
               </property>
              </widget>
             </item>
             <item row="0" column="1">
              <widget class="QLabel" name="label_2">
               <property name="font">
                <font>
                 <pointsize>9</pointsize>
                </font>
               </property>
               <property name="text">
                <string>TAKE OFF</string>
               </property>
               <property name="alignment">
                <set>Qt::AlignLeading|Qt::AlignLeft|Qt::AlignTop</set>
               </property>
              </widget>
             </item>
             <item row="1" column="0">
              <widget class="QLabel" name="label_3">
               <property name="text">
                <string>y</string>
               </property>
               <property name="alignment">
                <set>Qt::AlignLeading|Qt::AlignLeft|Qt::AlignTop</set>
               </property>
              </widget>
             </item>
             <item row="1" column="1">
              <widget class="QLabel" name="label_4">
               <property name="font">
                <font>
                 <pointsize>9</pointsize>
                </font>
               </property>
               <property name="text">
                <string>LAND</string>
               </property>
               <property name="alignment">
                <set>Qt::AlignLeading|Qt::AlignLeft|Qt::AlignTop</set>
               </property>
              </widget>
             </item>
             <item row="2" column="0">
              <widget class="QLabel" name="label_17">
               <property name="text">
                <string>h</string>
               </property>
              </widget>
             </item>
             <item row="2" column="1">
              <widget class="QLabel" name="label_18">
               <property name="font">
                <font>
                 <pointsize>9</pointsize>
                </font>
               </property>
               <property name="text">
                <string>HOVER</string>
               </property>
              </widget>
             </item>
            </layout>
           </widget>
          </item>
         </layout>
        </widget>
       </item>
       <item row="0" column="0">
        <widget class="QLabel" name="label_19">
         <property name="text">
          <string>You can use the keyboard for teleoperation control 
 (this will stop the mission execution):</string>
         </property>
        </widget>
       </item>
      </layout>
     </item>
     <item row="5" column="0">
      <layout class="QGridLayout" name="gridLayout_4">
       <property name="topMargin">
        <number>0</number>
       </property>
       <item row="1" column="0">
        <widget class="QPushButton" name="emergency_land_tree_button">
         <property name="sizePolicy">
          <sizepolicy hsizetype="MinimumExpanding" vsizetype="Maximum">
           <horstretch>0</horstretch>
           <verstretch>0</verstretch>
          </sizepolicy>
         </property>
         <property name="minimumSize">
          <size>
           <width>0</width>
           <height>40</height>
          </size>
         </property>
         <property name="text">
          <string>Emergency land</string>
         </property>
         <property name="icon">
          <iconset resource="../../resources/images.qrc">
           <normaloff>:/images/images/airplane-landing.png</normaloff>:/images/images/airplane-landing.png</iconset>
         </property>
         <property name="default">
          <bool>true</bool>
         </property>
        </widget>
       </item>
       <item row="1" column="1">
        <widget class="QPushButton" name="abort_tree_button">
         <property name="sizePolicy">
          <sizepolicy hsizetype="MinimumExpanding" vsizetype="Maximum">
           <horstretch>0</horstretch>
           <verstretch>0</verstretch>
          </sizepolicy>
         </property>
         <property name="minimumSize">
          <size>
           <width>0</width>
           <height>40</height>
          </size>
         </property>
         <property name="text">
          <string>Abort mission</string>
         </property>
         <property name="icon">
          <iconset resource="../../resources/images.qrc">
           <normaloff>:/images/images/stop.png</normaloff>:/images/images/stop.png</iconset>
         </property>
         <property name="default">
          <bool>true</bool>
         </property>
        </widget>
       </item>
       <item row="0" column="0" colspan="3">
        <widget class="QPushButton" name="execute_tree_button">
         <property name="sizePolicy">
          <sizepolicy hsizetype="MinimumExpanding" vsizetype="Maximum">
           <horstretch>0</horstretch>
           <verstretch>0</verstretch>
          </sizepolicy>
         </property>
         <property name="minimumSize">
          <size>
           <width>0</width>
           <height>40</height>
          </size>
         </property>
         <property name="text">
          <string>Start mission</string>
         </property>
         <property name="icon">
          <iconset resource="../../resources/images.qrc">
           <normaloff>:/images/images/start_mission.png</normaloff>:/images/images/start_mission.png</iconset>
         </property>
         <property name="iconSize">
          <size>
           <width>20</width>
           <height>20</height>
          </size>
         </property>
        </widget>
       </item>
      </layout>
     </item>
     <item row="0" column="0">
      <layout class="QGridLayout" name="gridLayout_3">
       <property name="rightMargin">
        <number>9</number>
       </property>
       <property name="bottomMargin">
        <number>0</number>
       </property>
       <item row="1" column="0">
        <widget class="QLabel" name="label_wifi">
         <property name="text">
          <string>Wireless connection:</string>
         </property>
        </widget>
       </item>
       <item row="2" column="0">
        <widget class="QLabel" name="label_batery">
         <property name="text">
          <string>Battery charge:</string>
         </property>
        </widget>
       </item>
       <item row="1" column="1">
        <widget class="QLabel" name="value_wifi">
         <property name="text">
          <string>Disconnected</string>
         </property>
        </widget>
       </item>
       <item row="0" column="1">
        <widget class="QLabel" name="value_vehicle">
         <property name="text">
          <string>-</string>
         </property>
        </widget>
       </item>
       <item row="3" column="1">
        <widget class="QLabel" name="value_flight_time">
         <property name="sizePolicy">
          <sizepolicy hsizetype="Preferred" vsizetype="Preferred">
           <horstretch>10</horstretch>
           <verstretch>0</verstretch>
          </sizepolicy>
         </property>
         <property name="text">
          <string>00:00:00</string>
         </property>
        </widget>
       </item>
       <item row="2" column="1">
        <widget class="QLabel" name="value_battery">
         <property name="text">
          <string>0%</string>
         </property>
        </widget>
       </item>
       <item row="3" column="0">
        <widget class="QLabel" name="label_flight_time">
         <property name="sizePolicy">
          <sizepolicy hsizetype="Preferred" vsizetype="Preferred">
           <horstretch>5</horstretch>
           <verstretch>0</verstretch>
          </sizepolicy>
         </property>
         <property name="text">
          <string>Flight time:</string>
         </property>
        </widget>
       </item>
       <item row="0" column="0">
        <widget class="QLabel" name="label_vehicle">
         <property name="text">
          <string>Vehicle:</string>
         </property>
        </widget>
       </item>
      </layout>
     </item>
     <item row="4" column="0">
      <spacer name="horizontalSpacer">
       <property name="orientation">
        <enum>Qt::Horizontal</enum>
       </property>
       <property name="sizeHint" stdset="0">
        <size>
         <width>40</width>
         <height>20</height>
        </size>
       </property>
      </spacer>
     </item>
     <item row="1" column="0">
      <layout class="QGridLayout" name="gridLayout_6">
       <property name="topMargin">
        <number>9</number>
       </property>
      </layout>
     </item>
    </layout>
   </item>
  </layout>
 </widget>
 <resources>
  <include location="../../resources/images.qrc"/>
  <include location="../../resources/img.qrc"/>
 </resources>
 <connections/>
</ui>
